<?xml version="1.0" encoding="UTF-8" standalone="no"?>
<svg
   xmlns:dc="http://purl.org/dc/elements/1.1/"
   xmlns:cc="http://creativecommons.org/ns#"
   xmlns:rdf="http://www.w3.org/1999/02/22-rdf-syntax-ns#"
   xmlns:svg="http://www.w3.org/2000/svg"
   xmlns="http://www.w3.org/2000/svg"
   xmlns:sodipodi="http://sodipodi.sourceforge.net/DTD/sodipodi-0.dtd"
   xmlns:inkscape="http://www.inkscape.org/namespaces/inkscape"
   class="icon"
   height="27"
   viewBox="0 0 39.000001 54.000003"
   version="1.1"
   id="svg3531"
   inkscape:version="0.91 r13725"
   sodipodi:docname="router.svg"
   width="39">
  <metadata
     id="metadata3551">
    <rdf:RDF>
      <cc:Work
         rdf:about="">
        <dc:format>image/svg+xml</dc:format>
        <dc:type
           rdf:resource="http://purl.org/dc/dcmitype/StillImage" />
        <dc:title></dc:title>
      </cc:Work>
    </rdf:RDF>
  </metadata>
  <defs
     id="defs3549" />
  <sodipodi:namedview
     pagecolor="#ffffff"
     bordercolor="#666666"
     borderopacity="1"
     objecttolerance="10"
     gridtolerance="10"
     guidetolerance="10"
     inkscape:pageopacity="0"
     inkscape:pageshadow="2"
     inkscape:window-width="1301"
     inkscape:window-height="744"
     id="namedview3547"
     showgrid="false"
     inkscape:zoom="12.540097"
     inkscape:cx="30.414686"
     inkscape:cy="16.82938"
     inkscape:window-x="65"
     inkscape:window-y="24"
     inkscape:window-maximized="1"
     inkscape:current-layer="svg3531"
     inkscape:snap-page="false"
     units="px"
     borderlayer="false"
     fit-margin-top="0"
     fit-margin-left="0"
     fit-margin-right="0"
     fit-margin-bottom="0" />
  <path
     d="m 57.955604,37.804792 c 0,8.511116 -17.138464,15.397771 -38.421405,15.397771 -21.2586399,0 -38.529007,-6.886655 -38.529007,-15.397771 0,-8.535365 17.2721011,-15.422003 38.529007,-15.422003 21.282941,0 38.421405,6.886638 38.421405,15.422003"
     id="path3537"
     inkscape:connector-curvature="0"
     style="fill:#0978aa" />
  <path
     d="m -19.105882,16.193865 0,22.025716 77.061486,0 0,-22.025716 z"
     id="path3539"
     inkscape:connector-curvature="0"
     style="fill:#0978aa" />
  <path
     d="m 57.955604,15.784268 c 0,8.535412 -17.138464,15.418525 -38.421405,15.418525 -21.2586399,0 -38.529007,-6.884877 -38.529007,-15.418525 0,-8.511069 17.2721011,-15.39770807 38.529007,-15.39770807 21.282941,0 38.421405,6.88487707 38.421405,15.39770807"
     id="path3541"
     inkscape:connector-curvature="0"
     style="fill:#45afe3" />
  <path
     d="m 20.481808,12.351381 5.640503,2.191995 13.391436,-6.188971 6.345141,1.80498 -3.280172,-5.645701 -16.216892,0 6.808526,1.931651 z m -2.358603,6.319072 -5.637035,-2.191948 -13.39490889,6.317358 -6.21150001,-1.778921 3.281906,5.492971 16.1023549,0 -6.6974579,-1.90564 z M -5.8446099,6.445335 -0.07047091,4.230758 13.320966,10.574175 l 6.213233,-1.806696 -3.281905,5.51903 -16.10408891,0 6.69572301,-1.935128 z M 45.04492,25.013869 39.274244,27.205866 25.87934,21.016942 l -6.213239,1.778921 3.28365,-5.61969 16.211685,0 -6.80332,1.90564 z"
     id="path3543"
     inkscape:connector-curvature="0"
     style="fill:#010101" />
  <path
     d="m 20.943464,12.894604 5.640508,2.216292 13.39317,-6.187209 6.345132,1.777206 -3.280172,-5.645748 -16.215159,0 6.806793,1.931651 z m -2.334306,6.343416 -5.640504,-2.216292 -13.39316991,6.341654 -6.23407199,-1.80498 3.28365,5.520793 16.1023449,0 -6.6974529,-1.935129 z M -5.3603969,6.986796 0.39118609,4.796562 13.782622,11.11392 l 6.235796,-1.778921 -3.304472,5.492971 -16.08151791,0 6.69571301,-1.933366 z m 50.8669679,18.568582 -5.749843,2.191948 -13.394904,-6.188924 -6.232327,1.80498 3.281905,-5.645701 16.215158,0 -6.808526,1.935129 z"
     id="path3545"
     inkscape:connector-curvature="0"
     style="fill:#ffffff" />
</svg>
